{ "photos": { "page": 1, "pages": 72, "perpage": 100, "total": "7112", 
    "photo": [
      { "id": "18931426481", "owner": "43257003@N07", "secret": "81eae084ee", "server": "560", "farm": 1, "title": "Ella (1)", "ispublic": 1, "isfriend": 0, "isfamily": 0 },
      { "id": "18307855043", "owner": "43257003@N07", "secret": "6e202f4454", "server": "486", "farm": 1, "title": "Ella (2)", "ispublic": 1, "isfriend": 0, "isfamily": 0 },
      { "id": "18305968814", "owner": "43257003@N07", "secret": "12f5b228b7", "server": "310", "farm": 1, "title": "Ella (3)", "ispublic": 1, "isfriend": 0, "isfamily": 0 },
      { "id": "18296587864", "owner": "131332003@N08", "secret": "404ff6e9de", "server": "485", "farm": 1, "title": "dog-3", "ispublic": 1, "isfriend": 0, "isfamily": 0 },
      { "id": "18814268646", "owner": "131160746@N06", "secret": "6d07c1fd30", "server": "5604", "farm": 6, "title": "Tru in a Field", "ispublic": 1, "isfriend": 0, "isfamily": 0 },
      { "id": "18285723435", "owner": "35439044@N05", "secret": "b164b9e6b6", "server": "7764", "farm": 8, "title": "Yum", "ispublic": 1, "isfriend": 0, "isfamily": 0 },
      { "id": "18082543416", "owner": "16963300@N08", "secret": "9992184210", "server": "8851", "farm": 9, "title": "", "ispublic": 1, "isfriend": 0, "isfamily": 0 },
      { "id": "17345494410", "owner": "64015905@N08", "secret": "1f047ebd87", "server": "8689", "farm": 9, "title": "Kronk", "ispublic": 1, "isfriend": 0, "isfamily": 0 },
      { "id": "17348301796", "owner": "35439044@N05", "secret": "c10e951bed", "server": "8889", "farm": 9, "title": "Hangover", "ispublic": 1, "isfriend": 0, "isfamily": 0 },
      { "id": "17292735985", "owner": "36304721@N02", "secret": "c5f61748ba", "server": "7657", "farm": 8, "title": "peppu", "ispublic": 1, "isfriend": 0, "isfamily": 0 },
      { "id": "17224469436", "owner": "16963300@N08", "secret": "011d7c5589", "server": "7685", "farm": 8, "title": "Friends", "ispublic": 1, "isfriend": 0, "isfamily": 0 },
      { "id": "17003757148", "owner": "35439044@N05", "secret": "2502e942ea", "server": "7715", "farm": 8, "title": "Happy", "ispublic": 1, "isfriend": 0, "isfamily": 0 },
      { "id": "16979639650", "owner": "35439044@N05", "secret": "aefd789e23", "server": "7666", "farm": 8, "title": "Just being cute", "ispublic": 1, "isfriend": 0, "isfamily": 0 },
      { "id": "16963406428", "owner": "27010092@N02", "secret": "42464e9fa3", "server": "8797", "farm": 9, "title": "nusha as a puppy", "ispublic": 1, "isfriend": 0, "isfamily": 0 },
      { "id": "16528751454", "owner": "27010092@N02", "secret": "453f646ea7", "server": "8815", "farm": 9, "title": "puppy in basket", "ispublic": 1, "isfriend": 0, "isfamily": 0 },
      { "id": "16338144944", "owner": "35439044@N05", "secret": "06facf2d96", "server": "8704", "farm": 9, "title": "With his ball", "ispublic": 1, "isfriend": 0, "isfamily": 0 },
      { "id": "16861338526", "owner": "35439044@N05", "secret": "4f4b9c7eb6", "server": "7646", "farm": 8, "title": "Taking afternoon nap", "ispublic": 1, "isfriend": 0, "isfamily": 0 },
      { "id": "16626810407", "owner": "52824607@N00", "secret": "20cb43ce4c", "server": "7623", "farm": 8, "title": "Archie", "ispublic": 1, "isfriend": 0, "isfamily": 0 },
      { "id": "16818123872", "owner": "35439044@N05", "secret": "52c643e774", "server": "7603", "farm": 8, "title": "Just chilling", "ispublic": 1, "isfriend": 0, "isfamily": 0 },
      { "id": "16415060705", "owner": "127766184@N03", "secret": "4c722204a6", "server": "7352", "farm": 8, "title": "BOE loves her panda outfit so much she would wear it after an apocalypse", "ispublic": 1, "isfriend": 0, "isfamily": 0 },
      { "id": "15784880654", "owner": "123456486@N03", "secret": "3ea21cdffc", "server": "7398", "farm": 8, "title": "Puppy sweetness", "ispublic": 1, "isfriend": 0, "isfamily": 0 },
      { "id": "16164934407", "owner": "74545987@N00", "secret": "aa2dec8514", "server": "7531", "farm": 8, "title": "After 1st haircut", "ispublic": 1, "isfriend": 0, "isfamily": 0 },
      { "id": "16350730415", "owner": "74545987@N00", "secret": "a28cc189fa", "server": "7515", "farm": 8, "title": "Looking like a big girl", "ispublic": 1, "isfriend": 0, "isfamily": 0 },
      { "id": "16279729296", "owner": "93619185@N02", "secret": "a32eb3b801", "server": "8664", "farm": 9, "title": "Cute little puppy", "ispublic": 1, "isfriend": 0, "isfamily": 0 },
      { "id": "16288331095", "owner": "74545987@N00", "secret": "0854559407", "server": "8585", "farm": 9, "title": "Santa's helper", "ispublic": 1, "isfriend": 0, "isfamily": 0 },
      { "id": "16286543181", "owner": "74545987@N00", "secret": "fae36a622c", "server": "7533", "farm": 8, "title": "Visit with Santa", "ispublic": 1, "isfriend": 0, "isfamily": 0 },
      { "id": "15668458023", "owner": "74545987@N00", "secret": "156295a35e", "server": "7562", "farm": 8, "title": "", "ispublic": 1, "isfriend": 0, "isfamily": 0 },
      { "id": "15602898604", "owner": "93058428@N06", "secret": "97fca60f72", "server": "7565", "farm": 8, "title": "Don't be Jealous of My Life of Ease", "ispublic": 1, "isfriend": 0, "isfamily": 0 },
      { "id": "15544510074", "owner": "52824607@N00", "secret": "1db10c35dd", "server": "8635", "farm": 9, "title": "Archie at 18 weeks", "ispublic": 1, "isfriend": 0, "isfamily": 0 },
      { "id": "15534222683", "owner": "17033374@N08", "secret": "857719de68", "server": "7580", "farm": 8, "title": "Life is better with a frenchie...", "ispublic": 1, "isfriend": 0, "isfamily": 0 },
      { "id": "15967883819", "owner": "17033374@N08", "secret": "2af194838c", "server": "7493", "farm": 8, "title": "Soon to be deleted, but this...", "ispublic": 1, "isfriend": 0, "isfamily": 0 },
      { "id": "17685041644", "owner": "35439044@N05", "secret": "b6e2d1597d", "server": "8757", "farm": 9, "title": "Happy", "ispublic": 1, "isfriend": 0, "isfamily": 0 },
      { "id": "18013477868", "owner": "126825825@N06", "secret": "f94284516e", "server": "7791", "farm": 8, "title": "Roxy the Bulldog Puppy", "ispublic": 1, "isfriend": 0, "isfamily": 0 },
      { "id": "18013619750", "owner": "126825825@N06", "secret": "1d124db001", "server": "8798", "farm": 9, "title": "Roxy the Bulldog Puppy", "ispublic": 1, "isfriend": 0, "isfamily": 0 },
      { "id": "18174857216", "owner": "126825825@N06", "secret": "9c8da72d81", "server": "7751", "farm": 8, "title": "Roxy the Bulldog Puppy", "ispublic": 1, "isfriend": 0, "isfamily": 0 },
      { "id": "18174853356", "owner": "126825825@N06", "secret": "6ce6dbc148", "server": "7771", "farm": 8, "title": "Roxy the Bulldog Puppy", "ispublic": 1, "isfriend": 0, "isfamily": 0 },
      { "id": "18013611700", "owner": "126825825@N06", "secret": "bc9bac5e44", "server": "8896", "farm": 9, "title": "Roxy the Bulldog Puppy", "ispublic": 1, "isfriend": 0, "isfamily": 0 },
      { "id": "18174849766", "owner": "126825825@N06", "secret": "3c1d455880", "server": "7799", "farm": 8, "title": "Roxy the Bulldog Puppy", "ispublic": 1, "isfriend": 0, "isfamily": 0 },
      { "id": "18201331415", "owner": "126825825@N06", "secret": "9b229522cf", "server": "8879", "farm": 9, "title": "Roxy the Bulldog Puppy", "ispublic": 1, "isfriend": 0, "isfamily": 0 },
      { "id": "18015119479", "owner": "126825825@N06", "secret": "52dda04d1b", "server": "7796", "farm": 8, "title": "Roxy the Bulldog Puppy", "ispublic": 1, "isfriend": 0, "isfamily": 0 },
      { "id": "18201325015", "owner": "126825825@N06", "secret": "655468dfef", "server": "7752", "farm": 8, "title": "Roxy the Bulldog Puppy", "ispublic": 1, "isfriend": 0, "isfamily": 0 },
      { "id": "18013595830", "owner": "126825825@N06", "secret": "74843f118a", "server": "7754", "farm": 8, "title": "Roxy the Bulldog Puppy", "ispublic": 1, "isfriend": 0, "isfamily": 0 },
      { "id": "18202502901", "owner": "126825825@N06", "secret": "0afdd2a1ba", "server": "7790", "farm": 8, "title": "Roxy the Bulldog Puppy", "ispublic": 1, "isfriend": 0, "isfamily": 0 },
      { "id": "18169667576", "owner": "31491869@N03", "secret": "d4f92d8bbd", "server": "7777", "farm": 8, "title": "Little Ellie..", "ispublic": 1, "isfriend": 0, "isfamily": 0 },
      { "id": "17686004390", "owner": "127529332@N06", "secret": "f24b585dfa", "server": "7767", "farm": 8, "title": "", "ispublic": 1, "isfriend": 0, "isfamily": 0 },
      { "id": "17345506370", "owner": "64015905@N08", "secret": "9daf0477d2", "server": "8828", "farm": 9, "title": "Kronk", "ispublic": 1, "isfriend": 0, "isfamily": 0 },
      { "id": "17131504187", "owner": "131160746@N06", "secret": "e8e87f0c74", "server": "7777", "farm": 8, "title": "Smiley Tru", "ispublic": 1, "isfriend": 0, "isfamily": 0 },
      { "id": "16616946063", "owner": "107737711@N02", "secret": "28ab52783b", "server": "5457", "farm": 6, "title": "Dog portrait \/ Intuos5 \/ CS6", "ispublic": 1, "isfriend": 0, "isfamily": 0 },
      { "id": "17021807499", "owner": "74825815@N00", "secret": "cf2531fb2a", "server": "5325", "farm": 6, "title": "Everytime I fry up bacon", "ispublic": 1, "isfriend": 0, "isfamily": 0 },
      { "id": "17149309542", "owner": "27010092@N02", "secret": "a848b1c34f", "server": "7672", "farm": 8, "title": "Nusha", "ispublic": 1, "isfriend": 0, "isfamily": 0 },
      { "id": "16931955770", "owner": "84495531@N08", "secret": "62d573887a", "server": "7604", "farm": 8, "title": "Walkies", "ispublic": 1, "isfriend": 0, "isfamily": 0 },
      { "id": "16340438593", "owner": "10455933@N07", "secret": "cffb02be8a", "server": "8701", "farm": 9, "title": "Puppy", "ispublic": 1, "isfriend": 0, "isfamily": 0 },
      { "id": "16950827685", "owner": "126454625@N08", "secret": "abbedd564e", "server": "7611", "farm": 8, "title": "", "ispublic": 1, "isfriend": 0, "isfamily": 0 },
      { "id": "16757480185", "owner": "35439044@N05", "secret": "12dab477a2", "server": "8618", "farm": 9, "title": "Gerdoo in the park", "ispublic": 1, "isfriend": 0, "isfamily": 0 },
      { "id": "16563346959", "owner": "128330431@N03", "secret": "dd60a90800", "server": "8724", "farm": 9, "title": "Gloomy", "ispublic": 1, "isfriend": 0, "isfamily": 0 },
      { "id": "16522780148", "owner": "35439044@N05", "secret": "3ef8869ed9", "server": "8612", "farm": 9, "title": "", "ispublic": 1, "isfriend": 0, "isfamily": 0 },
      { "id": "16602252626", "owner": "90434731@N06", "secret": "9f4ec97c6b", "server": "8579", "farm": 9, "title": "Me and my baby #babygirl #puppy #puppylove", "ispublic": 1, "isfriend": 0, "isfamily": 0 },
      { "id": "16578658516", "owner": "35439044@N05", "secret": "7d6d8476b3", "server": "8655", "farm": 9, "title": "", "ispublic": 1, "isfriend": 0, "isfamily": 0 },
      { "id": "16604641625", "owner": "35439044@N05", "secret": "5663475234", "server": "8653", "farm": 9, "title": "", "ispublic": 1, "isfriend": 0, "isfamily": 0 },
      { "id": "16604640345", "owner": "35439044@N05", "secret": "37824a62bf", "server": "8601", "farm": 9, "title": "", "ispublic": 1, "isfriend": 0, "isfamily": 0 },
      { "id": "16604007392", "owner": "35439044@N05", "secret": "612d52a845", "server": "8613", "farm": 9, "title": "", "ispublic": 1, "isfriend": 0, "isfamily": 0 },
      { "id": "16417433428", "owner": "35439044@N05", "secret": "d62ba7479a", "server": "8668", "farm": 9, "title": "", "ispublic": 1, "isfriend": 0, "isfamily": 0 },
      { "id": "16418792719", "owner": "35439044@N05", "secret": "38a463be6f", "server": "8568", "farm": 9, "title": "", "ispublic": 1, "isfriend": 0, "isfamily": 0 },
      { "id": "15982457014", "owner": "35439044@N05", "secret": "fce8efc2d3", "server": "8628", "farm": 9, "title": "", "ispublic": 1, "isfriend": 0, "isfamily": 0 },
      { "id": "16417163948", "owner": "69019328@N06", "secret": "bd52f61bee", "server": "8647", "farm": 9, "title": "My Owner Loves Me So Much, I Get A Sweater", "ispublic": 1, "isfriend": 0, "isfamily": 0 },
      { "id": "16511055056", "owner": "130631922@N08", "secret": "6b033e06a9", "server": "7372", "farm": 8, "title": "Experimenting with mobile camera", "ispublic": 1, "isfriend": 0, "isfamily": 0 },
      { "id": "16509883891", "owner": "76704813@N03", "secret": "844af58d2d", "server": "7351", "farm": 8, "title": "Scarborough Port Puppies", "ispublic": 1, "isfriend": 0, "isfamily": 0 },
      { "id": "16410378356", "owner": "42151560@N03", "secret": "1c000554f9", "server": "7330", "farm": 8, "title": "IMG_8372b", "ispublic": 1, "isfriend": 0, "isfamily": 0 },
      { "id": "16436225765", "owner": "42151560@N03", "secret": "e73e419e1a", "server": "7433", "farm": 8, "title": "IMG_8011b", "ispublic": 1, "isfriend": 0, "isfamily": 0 },
      { "id": "16248804370", "owner": "42151560@N03", "secret": "816bd8514e", "server": "7282", "farm": 8, "title": "IMG_7990b", "ispublic": 1, "isfriend": 0, "isfamily": 0 },
      { "id": "16423088145", "owner": "44352291@N05", "secret": "b286ee01fd", "server": "7425", "farm": 8, "title": "How much is that doggie in the window?", "ispublic": 1, "isfriend": 0, "isfamily": 0 },
      { "id": "16160914349", "owner": "130787165@N04", "secret": "9467cdbf8b", "server": "7556", "farm": 8, "title": "Clipart Dog, Dog Clipart, Animal Clip Art, Digital Clip Art_thumbnail", "ispublic": 1, "isfriend": 0, "isfamily": 0 },
      { "id": "16304813392", "owner": "93619185@N02", "secret": "6b8c2bf386", "server": "7501", "farm": 8, "title": "Cute little pup", "ispublic": 1, "isfriend": 0, "isfamily": 0 },
      { "id": "16283412782", "owner": "37038578@N00", "secret": "487354b992", "server": "8640", "farm": 9, "title": "", "ispublic": 1, "isfriend": 0, "isfamily": 0 },
      { "id": "15664380653", "owner": "37038578@N00", "secret": "ff800faaf2", "server": "8674", "farm": 9, "title": "", "ispublic": 1, "isfriend": 0, "isfamily": 0 },
      { "id": "16258322876", "owner": "37038578@N00", "secret": "5fed5af48e", "server": "8609", "farm": 9, "title": "", "ispublic": 1, "isfriend": 0, "isfamily": 0 },
      { "id": "16098384287", "owner": "37038578@N00", "secret": "91d2c19dbe", "server": "7546", "farm": 8, "title": "", "ispublic": 1, "isfriend": 0, "isfamily": 0 },
      { "id": "15664378773", "owner": "37038578@N00", "secret": "46946a5981", "server": "8681", "farm": 9, "title": "", "ispublic": 1, "isfriend": 0, "isfamily": 0 },
      { "id": "16098112549", "owner": "37038578@N00", "secret": "284736c061", "server": "7471", "farm": 8, "title": "", "ispublic": 1, "isfriend": 0, "isfamily": 0 },
      { "id": "16284236795", "owner": "37038578@N00", "secret": "c0143e7c13", "server": "7475", "farm": 8, "title": "", "ispublic": 1, "isfriend": 0, "isfamily": 0 },
      { "id": "16098377897", "owner": "37038578@N00", "secret": "5bf7509d8a", "server": "7502", "farm": 8, "title": "", "ispublic": 1, "isfriend": 0, "isfamily": 0 },
      { "id": "16096706118", "owner": "37038578@N00", "secret": "eab91c0dc9", "server": "7506", "farm": 8, "title": "", "ispublic": 1, "isfriend": 0, "isfamily": 0 },
      { "id": "16097908327", "owner": "35439044@N05", "secret": "041e52940e", "server": "7546", "farm": 8, "title": "", "ispublic": 1, "isfriend": 0, "isfamily": 0 },
      { "id": "16096235828", "owner": "35439044@N05", "secret": "8bfdf7099a", "server": "7576", "farm": 8, "title": "", "ispublic": 1, "isfriend": 0, "isfamily": 0 },
      { "id": "15663903513", "owner": "35439044@N05", "secret": "4999110574", "server": "7525", "farm": 8, "title": "", "ispublic": 1, "isfriend": 0, "isfamily": 0 },
      { "id": "16097906717", "owner": "35439044@N05", "secret": "e7b6c438f5", "server": "7581", "farm": 8, "title": "", "ispublic": 1, "isfriend": 0, "isfamily": 0 },
      { "id": "16097633759", "owner": "35439044@N05", "secret": "9bd52f3888", "server": "8571", "farm": 9, "title": "", "ispublic": 1, "isfriend": 0, "isfamily": 0 },
      { "id": "16097902477", "owner": "35439044@N05", "secret": "c24b8f3b31", "server": "7521", "farm": 8, "title": "", "ispublic": 1, "isfriend": 0, "isfamily": 0 },
      { "id": "15663896193", "owner": "35439044@N05", "secret": "cc69d2199a", "server": "8621", "farm": 9, "title": "", "ispublic": 1, "isfriend": 0, "isfamily": 0 },
      { "id": "16012579727", "owner": "66843179@N08", "secret": "c93ccd424c", "server": "7482", "farm": 8, "title": "Mya 8 months", "ispublic": 1, "isfriend": 0, "isfamily": 0 },
      { "id": "15952186260", "owner": "44472650@N08", "secret": "6b99d698b8", "server": "8577", "farm": 9, "title": "IMG_8479", "ispublic": 1, "isfriend": 0, "isfamily": 0 },
      { "id": "15953724687", "owner": "44472650@N08", "secret": "ddbb51f9fb", "server": "7557", "farm": 8, "title": "IMG_8481", "ispublic": 1, "isfriend": 0, "isfamily": 0 },
      { "id": "15952184680", "owner": "44472650@N08", "secret": "9b2ca5fec5", "server": "7532", "farm": 8, "title": "IMG_8482", "ispublic": 1, "isfriend": 0, "isfamily": 0 },
      { "id": "15952041538", "owner": "44472650@N08", "secret": "f36ef869bf", "server": "8606", "farm": 9, "title": "IMG_8489", "ispublic": 1, "isfriend": 0, "isfamily": 0 },
      { "id": "15519759063", "owner": "44472650@N08", "secret": "6ba3c5f9d8", "server": "7572", "farm": 8, "title": "IMG_8492", "ispublic": 1, "isfriend": 0, "isfamily": 0 },
      { "id": "16137579741", "owner": "44472650@N08", "secret": "7e662206c6", "server": "8572", "farm": 9, "title": "IMG_8493", "ispublic": 1, "isfriend": 0, "isfamily": 0 },
      { "id": "15519755533", "owner": "44472650@N08", "secret": "84985088bf", "server": "7518", "farm": 8, "title": "IMG_8496", "ispublic": 1, "isfriend": 0, "isfamily": 0 },
      { "id": "16113691076", "owner": "44472650@N08", "secret": "4a73dfd6c4", "server": "7559", "farm": 8, "title": "IMG_8499", "ispublic": 1, "isfriend": 0, "isfamily": 0 },
      { "id": "16139493615", "owner": "44472650@N08", "secret": "f8d4164565", "server": "8649", "farm": 9, "title": "IMG_8500", "ispublic": 1, "isfriend": 0, "isfamily": 0 },
      { "id": "15952175670", "owner": "44472650@N08", "secret": "fe427ec125", "server": "7552", "farm": 8, "title": "IMG_8502", "ispublic": 1, "isfriend": 0, "isfamily": 0 }
    ] }, "stat": "ok" }